Introduction to tabulapdf • tabulapdf
…
covid <- covid[[1]]

colnames(covid) <- c("region", "treatments", "pct_increase")
covid$treatments <- as.numeric(gsub("\\.", "", covid$treatments))
covid$pct_increase <- as.numeric(
  gsub(",", ".", gsub("%", "", covid$pct_increase))
) / 100

covid

## # A tibble: 22 × 3
##    region                treatments pct_increase
##    <chr>                      <dbl>        <dbl>
##  1 Abruzzo                     2343        0.03 
##  2 Basilicata                   927        0.012
##  3 Calabria                    1797        0.023
##  4 Campania                    3289        0.041
##  5 Emilia Romagna              7945        0.1  
##  6 Friuli Venezia Giulia       1063        0.013
##  7 Lazio                      11206        0.141
##  8 Liguria                     5332        0.067
##  9 Lombardia                  12089        0.153
## 10 Marche                      3739        0.047
## # ℹ 12 more rows
…
